<svg width="24" height="24" viewBox="0 0 24 24" fill="none" xmlns="http://www.w3.org/2000/svg">
<path d="M2 8C2 5.79086 3.79086 4 6 4H18C20.2091 4 22 5.79086 22 8V9H2V8Z" fill="#E8EBF2"/>
<path d="M2 11H22V16C22 18.2091 20.2091 20 18 20H6C3.79086 20 2 18.2091 2 16V11Z" fill="#A3A7B8"/>
</svg>
